[
    {
        "uid": 279,
        "productId": "PAN04-A",
        "homeId": "C5C57707",
        "deviceChannel": [
            {
                "chid": 1,
                "functype": "Meter Switch",
                "name": "Wall Switch  CH1"
            },
            {
                "chid": 2,
                "functype": "Meter Switch",
                "name": "Wall Switch  CH2"
            },
            {
                "chid": 3,
                "functype": "Meter Switch",
                "name": "Wall Switch  CH3"
            }
        ],
        "group": "",
        "location": "",
        "description": "In-Wall Switch (500 Series)",
        "powerLevel": 100,
        "powerStatus": "",
        "tamperStatus": "noTampered",
        "tamperTimeStamp": 0,
        "userDefineName": ""
    },
    {
        "uid": 284,
        "productId": "PAD07",
        "homeId": "C5C57707",
        "deviceChannel": [
            {
                "chid": 0,
                "functype": "Dimmer",
                "name": "Dimmer "
            }
        ],
        "group": "",
        "location": "",
        "description": "In-wall Dimmer, with S1/S2",
        "powerLevel": 100,
        "powerStatus": "",
        "tamperStatus": "noTampered",
        "tamperTimeStamp": 0,
        "userDefineName": ""
    },
    {
        "uid": 286,
        "productId": "PAN04-A",
        "homeId": "C5C57707",
        "deviceChannel": [
            {
                "chid": 1,
                "functype": "Meter Switch",
                "name": "Wall Switch  CH1"
            },
            {
                "chid": 2,
                "functype": "Meter Switch",
                "name": "Wall Switch  CH2"
            },
            {
                "chid": 3,
                "functype": "Meter Switch",
                "name": "Wall Switch  CH3"
            }
        ],
        "group": "",
        "location": "",
        "description": "In-Wall Switch (500 Series)",
        "powerLevel": 100,
        "powerStatus": "",
        "tamperStatus": "noTampered",
        "tamperTimeStamp": 0,
        "userDefineName": ""
    },
    {
        "uid": 287,
        "productId": "PAN04-A",
        "homeId": "C5C57707",
        "deviceChannel": [
            {
                "chid": 1,
                "functype": "Meter Switch",
                "name": "Wall Switch  CH1"
            },
            {
                "chid": 2,
                "functype": "Meter Switch",
                "name": "Wall Switch  CH2"
            },
            {
                "chid": 3,
                "functype": "Meter Switch",
                "name": "Wall Switch  CH3"
            }
        ],
        "group": "",
        "location": "",
        "description": "In-Wall Switch (500 Series)",
        "powerLevel": 100,
        "powerStatus": "",
        "tamperStatus": "noTampered",
        "tamperTimeStamp": 0,
        "userDefineName": ""
    },
    {
        "uid": 288,
        "productId": "PAN15",
        "homeId": "C5C57707",
        "deviceChannel": [
            {
                "chid": 0,
                "functype": "Meter Switch",
                "name": "Wall Switch "
            }
        ],
        "group": "",
        "location": "",
        "description": "Wall Plug Asia/JP/US",
        "powerLevel": 100,
        "powerStatus": "",
        "tamperStatus": "noTampered",
        "tamperTimeStamp": 0,
        "userDefineName": ""
    },
    {
        "uid": 289,
        "productId": "PAN15",
        "homeId": "C5C57707",
        "deviceChannel": [
            {
                "chid": 0,
                "functype": "Meter Switch",
                "name": "Wall Switch "
            }
        ],
        "group": "",
        "location": "",
        "description": "Wall Plug Asia/JP/US",
        "powerLevel": 100,
        "powerStatus": "",
        "tamperStatus": "noTampered",
        "tamperTimeStamp": 0,
        "userDefineName": ""
    },
    {
        "uid": 290,
        "productId": "PST02-A",
        "homeId": "C5C57707",
        "deviceChannel": [
            {
                "chid": 13,
                "functype": "Door/Window Sensor",
                "name": "Door / Window Sensor"
            },
            {
                "chid": 14,
                "functype": "PIR Sensor",
                "name": "PIR Detector"
            }
        ],
        "group": "",
        "location": "",
        "description": "PIR/Temp/Lumen 3-in-1 (500 Series)",
        "powerLevel": 100,
        "powerStatus": "",
        "tamperStatus": "noTampered",
        "tamperTimeStamp": 0,
        "userDefineName": ""
    },
    {
        "uid": 292,
        "productId": "PAN04-A",
        "homeId": "C5C57707",
        "deviceChannel": [
            {
                "chid": 1,
                "functype": "Meter Switch",
                "name": "Wall Switch  CH1"
            },
            {
                "chid": 2,
                "functype": "Meter Switch",
                "name": "Wall Switch  CH2"
            },
            {
                "chid": 3,
                "functype": "Meter Switch",
                "name": "Wall Switch  CH3"
            }
        ],
        "group": "",
        "location": "",
        "description": "In-Wall Switch (500 Series)",
        "powerLevel": 100,
        "powerStatus": "",
        "tamperStatus": "noTampered",
        "tamperTimeStamp": 0,
        "userDefineName": ""
    },
    {
        "uid": 293,
        "productId": "PAN04-A",
        "homeId": "C5C57707",
        "deviceChannel": [
            {
                "chid": 1,
                "functype": "Meter Switch",
                "name": "Wall Switch  CH1"
            },
            {
                "chid": 2,
                "functype": "Meter Switch",
                "name": "Wall Switch  CH2"
            },
            {
                "chid": 3,
                "functype": "Meter Switch",
                "name": "Wall Switch  CH3"
            }
        ],
        "group": "",
        "location": "",
        "description": "In-Wall Switch (500 Series)",
        "powerLevel": 100,
        "powerStatus": "",
        "tamperStatus": "noTampered",
        "tamperTimeStamp": 0,
        "userDefineName": ""
    },
    {
        "uid": 294,
        "productId": "PAD07",
        "homeId": "C5C57707",
        "deviceChannel": [
            {
                "chid": 0,
                "functype": "Dimmer",
                "name": "Dimmer "
            }
        ],
        "group": "",
        "location": "",
        "description": "In-wall Dimmer, with S1/S2",
        "powerLevel": 100,
        "powerStatus": "",
        "tamperStatus": "noTampered",
        "tamperTimeStamp": 0,
        "userDefineName": ""
    },
    {
        "uid": 295,
        "productId": "PST02-A",
        "homeId": "C5C57707",
        "deviceChannel": [
            {
                "chid": 11,
                "functype": "Temperature Sensor",
                "name": "Temperature Sensor"
            },
            {
                "chid": 12,
                "functype": "Illumination Sensor",
                "name": "Illumination Sensor"
            },
            {
                "chid": 13,
                "functype": "Door/Window Sensor",
                "name": "Door / Window Sensor"
            },
            {
                "chid": 14,
                "functype": "PIR Sensor",
                "name": "PIR Detector"
            }
        ],
        "group": "",
        "location": "",
        "description": "PIR/Temp/Lumen 3-in-1 (500 Series)",
        "powerLevel": 100,
        "powerStatus": "",
        "tamperStatus": "noTampered",
        "tamperTimeStamp": 0,
        "userDefineName": ""
    }
]