{
    "actuator": [
        {
            "uid": "facility/room/1BAC03AD/PAN04-A/271/1",
            "functype": "Meter Switch",
            "location": "",
            "userDefineName": "",
            "description": "In-Wall Switch (500 Series)",
            "actuation": {
                "type": "state",
                "on": "255",
                "off": "0"
            },
            "lastBeatTime": "yyyy/mm/dd hh:ii:ss",
            "lastTamperedTime": "yyyy/mm/dd hh:ii:ss",
            "powerSource": "AC",
            "currentPowerLevel": "N/A",
            "currentActuateState": "stateName",
            "controllableBy": ""
        },
        {
            "uid": "facility/room/1BAC03AD/PAD07/294/1",
            "functype": "Dimmer",
            "location": "",
            "userDefineName": "",
            "description": "In-wall Dimmer, with S1/S2",
            "actuation": {
                "type": "range",
                "max": "100",
                "min": "0"
            },
            "lastBeatTime": "yyyy/mm/dd hh:ii:ss",
            "lastTamperedTime": "yyyy/mm/dd hh:ii:ss",
            "powerSource": "AC",
            "currentPowerLevel": "N/A",
            "currentActuateState": "stateName",
            "controllableBy": ""
        },
        {
            "uid": "facility/room/1BAC03AD/PAD07/294/1",
            "functype": "Dimmer",
            "location": "",
            "userDefineName": "",
            "description": "In-wall Dimmer, with S1/S2",
            "actuation": {
                "type": "range",
                "max": "100",
                "min": "0"
            },
            "lastBeatTime": "yyyy/mm/dd hh:ii:ss",
            "lastTamperedTime": "yyyy/mm/dd hh:ii:ss",
            "powerSource": "AC",
            "currentPowerLevel": "N/A",
            "currentActuateState": "stateName",
            "controllableBy": ""
        }
    ]
}